module github.com/ronaldr1985/stayawake

go 1.15

require (
	github.com/davecgh/go-spew v1.1.1 // indirect
	github.com/gen2brain/dlgs v0.0.0-20201118155338-03fe7f81ad25
	github.com/getlantern/systray v1.1.0
	github.com/gopherjs/gopherjs v0.0.0-20200217142428-fce0ec30dd00 // indirect
	github.com/niemeyer/pretty v0.0.0-20200227124842-a10e7caefd8e // indirect
	github.com/stretchr/testify v1.5.1 // indirect
	golang.org/x/sys v0.0.0-20201231184435-2d18734c6014 // indirect
	gopkg.in/check.v1 v1.0.0-20200227125254-8fa46927fb4f // indirect
	gopkg.in/yaml.v2 v2.2.8 // indirect
)
